…
### View data


```r
tibble(polrData)
```

```
## # A tibble: 436 x 6
##    Gender Ethnicity      FirstGeneration CourseGrade ActivityType Dominator
##    <chr>  <chr>                    <dbl>       <dbl> <chr>            <dbl>
##  1 M      Asian-American               1         2.6 Interactive          2
##  2 M      Asian-American               0         3.3 Interactive          6
##  3 M      Asian-American               1         3.4 Constructive         6
##  4 M      Asian-American               0         3   Interactive          2
##  5 M      Asian-American               1         2.4 Interactive          3
##  6 M      Asian-American               0         2.4 Interactive          6
##  7 F      Asian-American               1         1.5 Interactive          5
##  8 F      Asian-American               0         3.4 Constructive         5
##  9 F      Asian-American               1         3.2 Constructive         5
## 10 F      Asian-American               0         3.2 Interactive          2
## # ... with 426 more rows
```
…
